9.872453861033952949e-01 -7.072351452720643250e-02 1.426349610385826416e-01 -3.402405679225921631e+02
1.175772507260423316e-01 9.279380743018101896e-01 -3.537040010697554138e-01 1.297762989997863770e+03
-1.073412210162682096e-01 3.659632696787591399e-01 9.244180588439240287e-01 -1.135679185390472412e+02
0.000000000000000000e+00 0.000000000000000000e+00 0.000000000000000000e+00 1.000000000000000000e+00
