9.985127910067087553e-01 -2.913153701259036180e-02 4.608209790446653881e-02 2.054755240678787231e+02
4.908183882866422321e-02 8.482909428384388661e-01 -5.272508410571475901e-01 1.601939916610717773e+03
-2.373139888817746984e-02 5.287285029668408187e-01 8.484591863238052367e-01 3.578253090381622314e+02
0.000000000000000000e+00 0.000000000000000000e+00 0.000000000000000000e+00 1.000000000000000000e+00
