9.887348818124747085e-01 -1.307796356366751345e-01 -7.280123893183468309e-02 2.101245075464248657e+02
1.180683503692055714e-01 9.804071609863796999e-01 -1.576758171937642505e-01 8.300420045852661133e+02
9.199564189876663356e-02 1.473040582922457709e-01 9.848036942874800470e-01 2.590061128139495850e+02
0.000000000000000000e+00 0.000000000000000000e+00 0.000000000000000000e+00 1.000000000000000000e+00
