8.851924521143629265e-01 8.451145953921798681e-02 4.574845745228054983e-01 -3.053308129310607910e+02
9.123196665103863734e-02 9.327346595876712110e-01 -3.488305936480556313e-01 1.206454992294311523e+03
-4.561919014852686138e-01 3.505194260100604198e-01 8.179395338341537425e-01 -8.782001137733459473e+02
0.000000000000000000e+00 0.000000000000000000e+00 0.000000000000000000e+00 1.000000000000000000e+00
