9.855601130202881199e-01 -5.990620358614957841e-02 1.583745888560774140e-01 -5.393200516700744629e+02
1.112566629284323233e-01 9.341907872335557528e-01 -3.389830792266457227e-01 1.264163374900817871e+03
-1.276448924848384014e-01 3.517084301233679433e-01 9.273661421481215195e-01 -5.729158520698547363e+02
0.000000000000000000e+00 0.000000000000000000e+00 0.000000000000000000e+00 1.000000000000000000e+00
