9.624943327289801065e-01 -6.955099438842947401e-02 2.622352353216020338e-01 -3.717416226863861084e+02
2.210207742786740592e-01 7.615631416216203098e-01 -6.092383758929367232e-01 1.824531197547912598e+03
-1.573355547924585873e-01 6.443479188318905759e-01 7.483724224576696615e-01 7.073832750320434570e+02
0.000000000000000000e+00 0.000000000000000000e+00 0.000000000000000000e+00 1.000000000000000000e+00
