9.778920906168048210e-01 -2.979193280310639402e-02 2.069770515031795766e-01 4.373754262924194336e+02
1.613910213193925358e-01 7.369074178501383576e-01 -6.564452724751127510e-01 1.737305879592895508e+03
-1.329661511309477295e-01 6.753368776079807789e-01 7.254240858946752191e-01 7.578881978988647461e+02
0.000000000000000000e+00 0.000000000000000000e+00 0.000000000000000000e+00 1.000000000000000000e+00
