-2.236207600000000018e-01 9.515743300000000238e-01 2.109503600000000034e-01 1.183726499999999904e+00
9.570937200000000367e-01 2.553060699999999961e-01 -1.370780600000000016e-01 -7.801541099999999460e+02
-1.842968799999999963e-01 1.712458299999999878e-01 -9.678375700000000359e-01 1.673501100000000008e+02
0.000000000000000000e+00 0.000000000000000000e+00 0.000000000000000000e+00 1.000000000000000000e+00
