3.515758400000000257e-04 8.616000000000000325e-01 5.075877300000000147e-01 -5.353705999999999676e+01
9.971558999999999839e-01 -3.855660600000000021e-02 6.475686299999999784e-02 -8.245844100000000481e+02
7.536537899999999623e-02 5.061214000000000546e-01 -8.591630500000000392e-01 1.251005499999999984e+02
0.000000000000000000e+00 0.000000000000000000e+00 0.000000000000000000e+00 1.000000000000000000e+00
