5.523018200000000266e-02 8.799219099999999738e-01 -4.718973300000000037e-01 1.094166100000000057e+02
9.940338699999999861e-01 -3.936225500000000398e-03 1.090006200000000064e-01 -8.352210700000000543e+02
9.405455000000000065e-02 -4.751020000000000243e-01 -8.748895500000000158e-01 1.572977400000000046e+02
0.000000000000000000e+00 0.000000000000000000e+00 0.000000000000000000e+00 1.000000000000000000e+00
