3.504326199999999863e-02 9.610876999999999892e-01 2.740116699999999850e-01 -2.387912899999999894e+01
9.992037999999999753e-01 -3.892649699999999741e-02 8.745678700000000458e-03 -8.269700299999999515e+02
1.907168000000000058e-02 2.734870899999999883e-01 -9.616865500000000289e-01 1.757874099999999942e+02
0.000000000000000000e+00 0.000000000000000000e+00 0.000000000000000000e+00 1.000000000000000000e+00
